79307001
https://acb.com.vn/wps/wcm/connect/6b0ba300-084f-4133-8773-58040a2863a9/Bang%2Btong%2Bhop%2Blai%2Bsuat_161021+%281%29.pdf?MOD=AJPERES
PDF
1
0
Acb

79303001
https://www.sacombank.com.vn/canhan/Documents/LaiSuat/LAI_SUAT_NIEM_YET_TAI_QUAY_19.10.2021.pdf
PDF
1
0
SacomBank

79310001
https://www.techcombank.com.vn/file/get/24755
PDF
1
0
Techcombank

79309001
https://www.vpbank.com.vn/-/media/vpbank-latest/tai-lieu-bieu-mau/lai-suat-huy-dong/biu-li-sut--ti-quy-2021-07-03.pdf
PDF
1
0
Vpbank

79321001
https://hdbank.com.vn/api/download?fileName=document//20210824BIEULAISUATTIENGUIKHACHHANGCANHANfinal__1629964177938.pdf
PDF
1
0
Hdbank

79348001
https://www.shb.com.vn/wp-content/uploads/2020/08/01.Bieu-LS-H%C4%90-KHCN-VND-17.11.2021-final-1.pdf
PDF
1
1
Shb

79617001
https://www.hsbc.com.vn/content/dam/hsbc/hbvn/documents/vi/rates/HSBC_INTEREST_RATES_VN.pdf
PDF
1
0
HSBC
